\relax 
\@writefile{toc}{\contentsline {section}{\numberline {1}Systemy Dyskretne}{2}}
\@writefile{toc}{\contentsline {subsection}{\numberline {1.1}Pierwszy system}{2}}
\providecommand*\caption@xref[2]{\@setref\relax\@undefined{#1}}
\newlabel{odnosnik}{{1a}{2}}
\newlabel{sub@odnosnik}{{(a)}{a}}
\newlabel{odnosnik}{{1b}{2}}
\newlabel{sub@odnosnik}{{(b)}{b}}
\@writefile{lof}{\contentsline {figure}{\numberline {1}{\ignorespaces Odpowiedzi obiektu na poszczeg\IeC {\'o}lne wymuszenia\relax }}{2}}
\newlabel{lamana}{{1}{2}}
\@writefile{lof}{\contentsline {subfigure}{\numberline{(a)}{\ignorespaces {Odpowied\IeC {\'z} skokowa}}}{2}}
\@writefile{lof}{\contentsline {subfigure}{\numberline{(b)}{\ignorespaces {Odpowied\IeC {\'z} impulsowa}}}{2}}
\newlabel{odnosnik}{{2a}{3}}
\newlabel{sub@odnosnik}{{(a)}{a}}
\newlabel{odnosnik}{{2b}{3}}
\newlabel{sub@odnosnik}{{(b)}{b}}
\newlabel{odnosnik}{{2c}{3}}
\newlabel{sub@odnosnik}{{(c)}{c}}
\@writefile{lof}{\contentsline {figure}{\numberline {2}{\ignorespaces Charakterystyki systemu\relax }}{3}}
\newlabel{lamana}{{2}{3}}
\@writefile{lof}{\contentsline {subfigure}{\numberline{(a)}{\ignorespaces {Wykres Bode'go}}}{3}}
\@writefile{lof}{\contentsline {subfigure}{\numberline{(b)}{\ignorespaces {Wykres Nyquist'a}}}{3}}
\@writefile{lof}{\contentsline {subfigure}{\numberline{(c)}{\ignorespaces {Wykres zer i biegun\IeC {\'o}w}}}{3}}
\@writefile{toc}{\contentsline {subsection}{\numberline {1.2}Drugi system}{4}}
\newlabel{odnosnik}{{3a}{4}}
\newlabel{sub@odnosnik}{{(a)}{a}}
\newlabel{odnosnik}{{3b}{4}}
\newlabel{sub@odnosnik}{{(b)}{b}}
\@writefile{lof}{\contentsline {figure}{\numberline {3}{\ignorespaces Odpowiedzi obiektu na poszczeg\IeC {\'o}lne wymuszenia\relax }}{4}}
\newlabel{lamana}{{3}{4}}
\@writefile{lof}{\contentsline {subfigure}{\numberline{(a)}{\ignorespaces {Odpowied\IeC {\'z} skokowa}}}{4}}
\@writefile{lof}{\contentsline {subfigure}{\numberline{(b)}{\ignorespaces {Odpowied\IeC {\'z} impulsowa}}}{4}}
\newlabel{odnosnik}{{4a}{5}}
\newlabel{sub@odnosnik}{{(a)}{a}}
\newlabel{odnosnik}{{4b}{5}}
\newlabel{sub@odnosnik}{{(b)}{b}}
\newlabel{odnosnik}{{4c}{5}}
\newlabel{sub@odnosnik}{{(c)}{c}}
\@writefile{lof}{\contentsline {figure}{\numberline {4}{\ignorespaces Charakterystyki systemu\relax }}{5}}
\newlabel{lamana}{{4}{5}}
\@writefile{lof}{\contentsline {subfigure}{\numberline{(a)}{\ignorespaces {Wykres Bode'go}}}{5}}
\@writefile{lof}{\contentsline {subfigure}{\numberline{(b)}{\ignorespaces {Wykres Nyquist'a}}}{5}}
\@writefile{lof}{\contentsline {subfigure}{\numberline{(c)}{\ignorespaces {Wykres zer i biegun\IeC {\'o}w}}}{5}}
\@writefile{toc}{\contentsline {subsection}{\numberline {1.3}Trzeci system}{6}}
\newlabel{odnosnik}{{5a}{6}}
\newlabel{sub@odnosnik}{{(a)}{a}}
\newlabel{odnosnik}{{5b}{6}}
\newlabel{sub@odnosnik}{{(b)}{b}}
\@writefile{lof}{\contentsline {figure}{\numberline {5}{\ignorespaces Odpowiedzi obiektu na poszczeg\IeC {\'o}lne wymuszenia\relax }}{6}}
\newlabel{lamana}{{5}{6}}
\@writefile{lof}{\contentsline {subfigure}{\numberline{(a)}{\ignorespaces {Odpowied\IeC {\'z} skokowa}}}{6}}
\@writefile{lof}{\contentsline {subfigure}{\numberline{(b)}{\ignorespaces {Odpowied\IeC {\'z} impulsowa}}}{6}}
\newlabel{odnosnik}{{6a}{7}}
\newlabel{sub@odnosnik}{{(a)}{a}}
\newlabel{odnosnik}{{6b}{7}}
\newlabel{sub@odnosnik}{{(b)}{b}}
\newlabel{odnosnik}{{6c}{7}}
\newlabel{sub@odnosnik}{{(c)}{c}}
\@writefile{lof}{\contentsline {figure}{\numberline {6}{\ignorespaces Charakterystyki systemu\relax }}{7}}
\newlabel{lamana}{{6}{7}}
\@writefile{lof}{\contentsline {subfigure}{\numberline{(a)}{\ignorespaces {Wykres Bode'go}}}{7}}
\@writefile{lof}{\contentsline {subfigure}{\numberline{(b)}{\ignorespaces {Wykres Nyquist'a}}}{7}}
\@writefile{lof}{\contentsline {subfigure}{\numberline{(c)}{\ignorespaces {Wykres zer i biegun\IeC {\'o}w}}}{7}}
\@writefile{toc}{\contentsline {subsection}{\numberline {1.4}Czwarty system}{8}}
\newlabel{odnosnik}{{7a}{8}}
\newlabel{sub@odnosnik}{{(a)}{a}}
\newlabel{odnosnik}{{7b}{8}}
\newlabel{sub@odnosnik}{{(b)}{b}}
\@writefile{lof}{\contentsline {figure}{\numberline {7}{\ignorespaces Odpowiedzi obiektu na poszczeg\IeC {\'o}lne wymuszenia\relax }}{8}}
\newlabel{lamana}{{7}{8}}
\@writefile{lof}{\contentsline {subfigure}{\numberline{(a)}{\ignorespaces {Odpowied\IeC {\'z} skokowa}}}{8}}
\@writefile{lof}{\contentsline {subfigure}{\numberline{(b)}{\ignorespaces {Odpowied\IeC {\'z} impulsowa}}}{8}}
\newlabel{odnosnik}{{8a}{9}}
\newlabel{sub@odnosnik}{{(a)}{a}}
\newlabel{odnosnik}{{8b}{9}}
\newlabel{sub@odnosnik}{{(b)}{b}}
\newlabel{odnosnik}{{8c}{9}}
\newlabel{sub@odnosnik}{{(c)}{c}}
\@writefile{lof}{\contentsline {figure}{\numberline {8}{\ignorespaces Charakterystyki systemu\relax }}{9}}
\newlabel{lamana}{{8}{9}}
\@writefile{lof}{\contentsline {subfigure}{\numberline{(a)}{\ignorespaces {Wykres Bode'go}}}{9}}
\@writefile{lof}{\contentsline {subfigure}{\numberline{(b)}{\ignorespaces {Wykres Nyquist'a}}}{9}}
\@writefile{lof}{\contentsline {subfigure}{\numberline{(c)}{\ignorespaces {Wykres zer i biegun\IeC {\'o}w}}}{9}}
\@writefile{toc}{\contentsline {subsection}{\numberline {1.5}Pi\IeC {\k a}ty system}{10}}
\newlabel{odnosnik}{{9a}{10}}
\newlabel{sub@odnosnik}{{(a)}{a}}
\newlabel{odnosnik}{{9b}{10}}
\newlabel{sub@odnosnik}{{(b)}{b}}
\@writefile{lof}{\contentsline {figure}{\numberline {9}{\ignorespaces Odpowiedzi obiektu na poszczeg\IeC {\'o}lne wymuszenia\relax }}{10}}
\newlabel{lamana}{{9}{10}}
\@writefile{lof}{\contentsline {subfigure}{\numberline{(a)}{\ignorespaces {Odpowied\IeC {\'z} skokowa}}}{10}}
\@writefile{lof}{\contentsline {subfigure}{\numberline{(b)}{\ignorespaces {Odpowied\IeC {\'z} impulsowa}}}{10}}
\newlabel{odnosnik}{{10a}{11}}
\newlabel{sub@odnosnik}{{(a)}{a}}
\newlabel{odnosnik}{{10b}{11}}
\newlabel{sub@odnosnik}{{(b)}{b}}
\newlabel{odnosnik}{{10c}{11}}
\newlabel{sub@odnosnik}{{(c)}{c}}
\@writefile{lof}{\contentsline {figure}{\numberline {10}{\ignorespaces Charakterystyki systemu\relax }}{11}}
\newlabel{lamana}{{10}{11}}
\@writefile{lof}{\contentsline {subfigure}{\numberline{(a)}{\ignorespaces {Wykres Bode'go}}}{11}}
\@writefile{lof}{\contentsline {subfigure}{\numberline{(b)}{\ignorespaces {Wykres Nyquist'a}}}{11}}
\@writefile{lof}{\contentsline {subfigure}{\numberline{(c)}{\ignorespaces {Wykres zer i biegun\IeC {\'o}w}}}{11}}
\@writefile{toc}{\contentsline {section}{\numberline {2}Uk\IeC {\l }ad klimatyzatora}{13}}
\newlabel{odnosnik}{{11a}{14}}
\newlabel{sub@odnosnik}{{(a)}{a}}
\newlabel{odnosnik}{{11b}{14}}
\newlabel{sub@odnosnik}{{(b)}{b}}
\newlabel{odnosnik}{{11c}{14}}
\newlabel{sub@odnosnik}{{(c)}{c}}
\newlabel{lamana}{{\caption@xref {lamana}{ on input line 19}}{14}}
\@writefile{lof}{\contentsline {subfigure}{\numberline{(a)}{\ignorespaces {izolacja od otoczenia w pierwszym punkcie = 10, drugim = 30}}}{14}}
\@writefile{lof}{\contentsline {subfigure}{\numberline{(b)}{\ignorespaces {izolacja od otoczenia w pierwszym punkcie = 50, drugim = 40}}}{14}}
\@writefile{lof}{\contentsline {subfigure}{\numberline{(c)}{\ignorespaces {izolacja od otoczenia w pierwszym punkcie = 90, drugim = 60}}}{14}}
\newlabel{odnosnik}{{11d}{15}}
\newlabel{sub@odnosnik}{{(d)}{d}}
\newlabel{odnosnik}{{11e}{15}}
\newlabel{sub@odnosnik}{{(e)}{e}}
\newlabel{odnosnik}{{11f}{15}}
\newlabel{sub@odnosnik}{{(f)}{f}}
\newlabel{lamana}{{\caption@xref {lamana}{ on input line 32}}{15}}
\@writefile{lof}{\contentsline {subfigure}{\numberline{(d)}{\ignorespaces {pojemno\IeC {\'s}\IeC {\'c} cieplna pomieszczenia w pierwszym punkcie = 20, drugim = 50}}}{15}}
\@writefile{lof}{\contentsline {subfigure}{\numberline{(e)}{\ignorespaces {pojemno\IeC {\'s}\IeC {\'c} cieplna pomieszczenia w pierwszym punkcie = 40, drugim = 75}}}{15}}
\@writefile{lof}{\contentsline {subfigure}{\numberline{(f)}{\ignorespaces {pojemno\IeC {\'s}\IeC {\'c} cieplna pomieszczenia w pierwszym punkcie = 60, drugim = 100}}}{15}}
\@writefile{toc}{\contentsline {section}{\numberline {3}Sterowanie frezark\IeC {\k a}}{17}}
\@writefile{toc}{\contentsline {subsection}{\numberline {3.1}Simulink}{17}}
\newlabel{odnosnik}{{11g}{17}}
\newlabel{sub@odnosnik}{{(g)}{g}}
\newlabel{odnosnik}{{11h}{17}}
\newlabel{sub@odnosnik}{{(h)}{h}}
\newlabel{lamana}{{\caption@xref {lamana}{ on input line 10}}{17}}
\@writefile{lof}{\contentsline {subfigure}{\numberline{(g)}{\ignorespaces {Ci\IeC {\k a}g\IeC {\l }y}}}{17}}
\@writefile{lof}{\contentsline {subfigure}{\numberline{(h)}{\ignorespaces {Dyskretny}}}{17}}
\@writefile{toc}{\contentsline {subsection}{\numberline {3.2}Odpowied\IeC {\'z} regulatora}{18}}
\newlabel{odnosnik}{{11i}{18}}
\newlabel{sub@odnosnik}{{(i)}{i}}
\newlabel{odnosnik}{{11j}{18}}
\newlabel{sub@odnosnik}{{(j)}{j}}
\newlabel{lamana}{{\caption@xref {lamana}{ on input line 24}}{18}}
\@writefile{lof}{\contentsline {subfigure}{\numberline{(i)}{\ignorespaces {Ci\IeC {\k a}g\IeC {\l }y}}}{18}}
\@writefile{lof}{\contentsline {subfigure}{\numberline{(j)}{\ignorespaces {Dyskretny}}}{18}}
\@writefile{toc}{\contentsline {subsection}{\numberline {3.3}Dob\IeC {\'o}r nastaw}{19}}
\newlabel{odnosnik}{{11k}{19}}
\newlabel{sub@odnosnik}{{(k)}{k}}
\newlabel{odnosnik}{{11l}{19}}
\newlabel{sub@odnosnik}{{(l)}{l}}
\newlabel{lamana}{{\caption@xref {lamana}{ on input line 38}}{19}}
\@writefile{lof}{\contentsline {subfigure}{\numberline{(k)}{\ignorespaces {Ci\IeC {\k a}g\IeC {\l }y}}}{19}}
\@writefile{lof}{\contentsline {subfigure}{\numberline{(l)}{\ignorespaces {Dyskretny}}}{19}}
\@writefile{toc}{\contentsline {section}{\numberline {4}Metoda SVD}{20}}
\newlabel{odnosnik}{{11m}{21}}
\newlabel{sub@odnosnik}{{(m)}{m}}
\newlabel{odnosnik}{{11n}{21}}
\newlabel{sub@odnosnik}{{(n)}{n}}
\newlabel{odnosnik}{{11o}{21}}
\newlabel{sub@odnosnik}{{(o)}{o}}
\@writefile{lof}{\contentsline {figure}{\numberline {11}{\ignorespaces Metody przybli\IeC {\.z}ania rozwi\IeC {\k a}za\IeC {\'n} uk\IeC {\l }ad\IeC {\'o}w\relax }}{21}}
\newlabel{lamana}{{11}{21}}
\@writefile{lof}{\contentsline {subfigure}{\numberline{(m)}{\ignorespaces {Metoda najmniejszych kwadrat\IeC {\'o}w}}}{21}}
\@writefile{lof}{\contentsline {subfigure}{\numberline{(n)}{\ignorespaces {Metoda SVD}}}{21}}
\@writefile{lof}{\contentsline {subfigure}{\numberline{(o)}{\ignorespaces {Obie metody}}}{21}}
\@writefile{toc}{\contentsline {section}{\numberline {5}R\IeC {\'o}wnanie analityczne}{22}}
\newlabel{odnosnik}{{\caption@xref {odnosnik}{ on input line 3}}{22}}
\newlabel{odnosnik}{{\caption@xref {odnosnik}{ on input line 6}}{22}}
\newlabel{lamana}{{\caption@xref {lamana}{ on input line 8}}{22}}
\newlabel{odnosnik}{{\caption@xref {odnosnik}{ on input line 13}}{23}}
\newlabel{odnosnik}{{\caption@xref {odnosnik}{ on input line 16}}{23}}
\newlabel{lamana}{{\caption@xref {lamana}{ on input line 18}}{23}}
