\contentsline {section}{\numberline {1}Systemy Dyskretne}{2}
\contentsline {subsection}{\numberline {1.1}Pierwszy system}{2}
\contentsline {subsection}{\numberline {1.2}Drugi system}{4}
\contentsline {subsection}{\numberline {1.3}Trzeci system}{6}
\contentsline {subsection}{\numberline {1.4}Czwarty system}{8}
\contentsline {subsection}{\numberline {1.5}Pi\IeC {\k a}ty system}{10}
\contentsline {section}{\numberline {2}Uk\IeC {\l }ad klimatyzatora}{13}
\contentsline {section}{\numberline {3}Sterowanie frezark\IeC {\k a}}{17}
\contentsline {subsection}{\numberline {3.1}Simulink}{17}
\contentsline {subsection}{\numberline {3.2}Odpowied\IeC {\'z} regulatora}{18}
\contentsline {subsection}{\numberline {3.3}Dob\IeC {\'o}r nastaw}{19}
\contentsline {section}{\numberline {4}Metoda SVD}{20}
\contentsline {section}{\numberline {5}R\IeC {\'o}wnanie analityczne}{22}
